starting log: 08/11/16 04:10
concat
in filename: 16S.full_rearranged_replicates.aligned.fasta
in filename: 28S.full_rearranged_replicates.aligned.fasta
in filename: COI.full_rearranged_replicates.aligned.fasta
in filename: ITS1.full_replicates.aligned.fasta
outfile: combined_replicates.nex
